id	speaker	sex	age	educ	welsince	engsince	lang1	lang2	separate	network
1	BEC	F	31	4	1	1	0	SIMULT	4	1
2	ALY	F	32	4	1	3	1	PRISUC	2	1
3	BAE	M	54	3	1	3	1	PRISUC	5	2
4	ADW	F	73	4	1	1	0	SIMULT	2	1
5	ENA	F	42	4	1	3	1	PRISUC	3	1
6	GWE	F	36	5	1	3	1	PRISUC	4	1
7	DYF	M	29	5	1	3	1	PRISUC	2	2
8	AMR	F	36	3	1	1	0	SIMULT	5	1
9	ANT	F	52	4	1	1	0	SIMULT	1	1
10	NON	F	18	3	1	2	1	EARSUC	2	1
11	SAR	F	19	3	1	3	1	PRISUC	4	1
12	BLO	F	36	3	1	3	1	PRISUC	3	1
13	ANE	F	39	3	3	1	2	PRISUC	3	1
14	HOW	M	33	4	5	1	2	ADUSUC	4	1
15	HEF	M	25	4	1	3	1	PRISUC	2	1
16	ANG	F	70	3	1	5	1	ADUSUC	5	1
17	BRE	F	60	4	1	3	1	PRISUC	5	1
18	MEN	F	59	3	1	3	1	PRISUC	5	1
19	BAG	M	57	4	3	1	2	PRISUC	5	1
20	ABE	M	58	5	1	3	1	PRISUC	4	1
21	BAR	M	57	4	1	1	0	SIMULT	1	1
22	ADD	M	53	2	1	2	1	EARSUC	5	1
23	AED	M	52	1	1	3	1	PRISUC	5	1
24	BED	M	77	2	1	3	1	PRISUC	5	1
25	CEW	F	58	3	2	1	2	EARSUC	5	1
26	WEN	F	46	4	1	2	1	EARSUC	4	1
27	LNW	F	18	3	1	2	1	EARSUC	4	1
28	IRW	F	45	2	1	2	1	EARSUC	3	1
29	ION	F	45	2	1	2	1	EARSUC	4	1
30	BEI	M	65	1	1	3	1	PRISUC	5	1
31	CRI	F	60	4	1	3	1	PRISUC	5	1
32	ANN	F	61	4	1	3	1	PRISUC	2	1
33	BEL	M	43	4	5	1	2	ADUSUC	4	1
34	AWE	F	47	5	1	3	1	PRISUC	4	1
35	GFR	M	50	4	1	2	1	EARSUC	2	1
36	MRL	F	40	4	1	1	0	SIMULT	5	1
37	MED	F	56	4	1	3	1	PRISUC	2	1
38	LER	F	41	4	1	1	0	SIMULT	3	1
39	ANW	F	69	4	1	4	1	SECSUC	4	1
40	SIR	F	68	1	1	4	1	SECSUC	4	1
41	BEN	M	47	4	5	1	2	ADUSUC	4	2
42	AET	M	65	2	3	1	2	PRISUC	4	1
43	BEU	M	41	4	1	1	0	SIMULT	4	1
44	ARD	F	41	5		3			3	1
45	LIL	F	21	3	1	2	1	EARSUC	3	2
46	MEC	M	19	3	1	2	1	EARSUC	3	2
47	TRE	M	38	4	1	2	1	EARSUC	2	1
48	OLW	F	28	2	1	2	1	EARSUC	1	1
49	HAW	F	16	2	1	2	1	EARSUC	3	1
50	ILI	F	17	2	1	2	1	EARSUC	3	1
51	WYN	M	49	4	1	3	1	PRISUC	3	1
52	EVA	F	40	3	5	4	3		2	2
53	HEL	F	81	3	1	3	1	PRISUC	2	1
54	AID	M	71	4	1	2	1	EARSUC	4	1
55	HUN	F	25	4	1	3	1	PRISUC	1	1
56	ALB	M	25	4	1	1	0	SIMULT	2	1
57	GRE	F	23	4	1	3	1	PRISUC	5	1
58	GWY	F	23	4	1	2	1	EARSUC	5	1
59	GTH	M	72	2	1	3	1	PRISUC	4	1
60	EIF	M	61	3	1	4	1	SECSUC	3	1
61	TEC	M	71	3	1	1	0	SIMULT	1	1
62	IOL	F	69	5	1	3	1	PRISUC	2	1
63	MAB	F	19	3	1	1	0	SIMULT	1	1
64	LIS	F	20	3	1	1	0	SIMULT	2	2
65	LLA	M	21	4	1	4	1	SECSUC	2	1
66	IFO	M	30	3	1	2	1	EARSUC	2	1
67	LOI	F	25	4	1	2	1	EARSUC	2	1
68	MAG	F	27	3	1	1	0	SIMULT	1	2
69	LON	F	25	4	1	3	1	PRISUC	4	1
70	MEL	F	28	5	2	1	2	EARSUC	1	2
71	ARF	M	43	3	1	2	1	EARSUC	2	1
72	BRW	M	12	1	1	1	0	SIMULT	2	1
73	STE	M	34	3	1	2	1	EARSUC	2	1
74	LOR	F	25	4	1	2	1	EARSUC	3	1
75	MAT	M	64	4	1	3	1	PRISUC	1	1
76	TOS	M	15	1	1	3	1	PRISUC	2	1
77	HAR	M	13	1	1	3	1	PRISUC	2	1
78	CYN	M	57	3	1	4	1	SECSUC	3	1
79	OSW	M	57	2	1	1	0	SIMULT	3	1
80	COL	M	17	3	1	1	0	SIMULT	3	1
81	MER	M	18	3	1	1	0	SIMULT	4	1
82	SIO	M	18	3	3	1	2	PRISUC	1	1
83	CHR	F	10	1	3	1	2	PRISUC	1	
84	JAQ	F	38	3	3	1	2	PRISUC	1	1
85	HEC	M	23	4	1	2	1	EARSUC	3	1
86	DAN	M	25	4	1	3	1	PRISUC	5	1
87	TRA	F	14	1	1	2	1	EARSUC	2	1
88	GAI	F	16	2	1	2	1	EARSUC	2	1
89	LLE	M	22	4	1	1	0	SIMULT	2	1
90	MOS	M	19	3	1	1	0	SIMULT	1	1
91	DEW	M	45	2	3	1	2	PRISUC	3	1
92	CEI	M	17	2	3	1	2	PRISUC	3	0
93	SER	F	64	1	1	3	1	PRISUC	1	1
94	MYF	F	65	3	1	3	1	PRISUC	2	1
95	GUT	M	37	4	1	1	0	SIMULT	3	1
96	NER	F	33	4	1	1	0	SIMULT	1	1
97	ELE	F	40	5	1	3	1	PRISUC	5	1
98	ALN	M	42	4	1	2	1	EARSUC	3	1
99	CLE	M	58	4	1	2	1	EARSUC	5	1
100	HIL	F	62	2	1	3	1	PRISUC	4	1
101	MIC	M	52	2	1	2	1	EARSUC	3	1
102	RAC	F	52	5	1	2	1	EARSUC	3	1
103	OWA	M	67	3	1	4	1	SECSUC	4	1
104	DER	F	72	4	1	3	1	PRISUC	4	1
105	FLO	F	25	5	1	1	0	SIMULT	2	1
106	REG	M	29	4	1	3	1	PRISUC	3	1
107	RIS	M	19	3	1	3	1	PRISUC	2	1
108	GLE	F	19	3	3	1	2	PRISUC	2	2
109	SAL	F	19	3	1	1	0	SIMULT	3	1
110	CER	F	20	3	1	1	0	SIMULT	3	1
111	BTI	F	15	1	1	1	0	SIMULT	2	1
112	LUN	F	16	1	1	1	0	SIMULT	1	1
113	KIM	F	25	4	1	2	1	EARSUC	2	1
114	KAT	F	24	4	1	4	1	SECSUC	2	1
115	MEI	M	20	3	1	1	0	SIMULT	2	1
116	JAM	M	19	3	1	1	0	SIMULT	3	1
117	LIN	F	59	5	1	2	1	EARSUC	4	1
118	ELI	F	89	3	1	3	1	PRISUC	3	1
119	RHO	M	39	4	1	1	0	SIMULT	3	1
120	SND	F	36	4	1	1	0	SIMULT	3	2
121	EIR	F	56	4	4	1	2	SECSUC	1	1
122	MOR	F	27	4	1	2	1	EARSUC	1	2
123	BLW	F	18	3	1	2	1	EARSUC	3	1
124	HEU	F	49	4	1	3	1	PRISUC	2	1
125	IFA	M	48	5	1	3	1	PRISUC	3	1
126	FRE	M	67	4	5	1	2	ADUSUC	2	1
127	GWA	F	53	4	1	3	1	PRISUC	3	1
128	TEG	F	26	4	1	1	0	SIMULT	2	1
129	NEL	F	23	5	1	2	1	EARSUC	4	1
130	ADA	M	16	1	1	2	1	EARSUC	3	1
131	HYW	M	16	1	1	1	0	SIMULT	4	1
132	GWN	M	25	4	1	2	1	EARSUC	2	1
133	ROY	M	31	5	5	1	2	ADUSUC	3	2
134	HUW	M	66	1	1	3	1	PRISUC	4	1
135	TWM	M	34	2	1	1	0	SIMULT	4	1
136	CLR	F	57	1	1	3	1	PRISUC	1	1
137	ISL	M	66	1	1	3	1	PRISUC	5	
138	CAR	F	67	4	1	1	0	SIMULT	4	1
139	ENF	F	67	4	1	3	1	PRISUC	5	1
140	RNW	F	70	3	1	3	1	PRISUC	4	1
141	GOR	M	81	1	1	3	1	PRISUC	4	1
142	STN	M	86	1	1	3	1	PRISUC	3	1
143	EML	M	79	1	1	4	1	SECSUC	3	1
144	CLV	M	77	3	1	2	1	EARSUC	4	1
145	INT	M	82	1	1	3	1	PRISUC	3	1
146	ROB	M	31	4	3	1	2	PRISUC	3	2
147	GLA	F	35	5	5	4	3		2	2
148	PEN	M	35	5	1	2	1	EARSUC	2	1
149	CRL	F	23	5	2	1	2	EARSUC	2	1
150	GRG	M	53	2	5	1	2	ADUSUC	3	0
151	JEA	F	53	2	1	2	1	EARSUC	2	1
